(module GKS-913-Z (layer F.Cu) (tedit 5E87300A)
  (descr 811-S1-002-30-014101-2)
  (tags Connector)
  (attr smd)
  (fp_text reference J** (at 0 0.29) (layer F.SilkS)
    (effects (font (size 1.27 1.27) (thickness 0.254)))
  )
  (fp_text value GKS-913-Z (at 0 0.29) (layer F.SilkS) hide
    (effects (font (size 1.27 1.27) (thickness 0.254)))
  )
  (fp_text user %R (at 0 0.29) (layer F.Fab)
    (effects (font (size 1.27 1.27) (thickness 0.254)))
  )
  (fp_line (start 0 1.27) (end 0 -1.27) (layer F.Fab) (width 0.2))
  (fp_line (start -2.54 -2.54) (end 2.54 -2.54) (layer F.SilkS) (width 0.1))
  (fp_line (start 2.54 -2.54) (end 2.54 2.54) (layer F.SilkS) (width 0.1))
  (fp_line (start 2.54 2.54) (end -2.54 2.54) (layer F.SilkS) (width 0.1))
  (fp_line (start -2.54 2.54) (end -2.54 -2.54) (layer F.SilkS) (width 0.1))
  (fp_line (start -1.4 1.8) (end -1.4 1.8) (layer F.SilkS) (width 0.2))
  (fp_line (start -1.3 1.8) (end -1.3 1.8) (layer F.SilkS) (width 0.2))
  (fp_line (start -1.4 1.8) (end -1.4 1.8) (layer F.SilkS) (width 0.2))
  (fp_arc (start -1.35 1.8) (end -1.4 1.8) (angle -180) (layer F.SilkS) (width 0.2))
  (fp_arc (start -1.35 1.8) (end -1.4 1.8) (angle -180) (layer F.SilkS) (width 0.2))
  (pad 1 thru_hole circle (at 0 0 90) (size 4 4) (drill 2) (layers *.Cu *.Mask))
  (model 811-S1-002-30-014101.stp
    (at (xyz 0 0 0))
    (scale (xyz 1 1 1))
    (rotate (xyz 0 0 0))
  )
)
